<svg width="64" height="64" viewBox="0 0 64 64" fill="none" xmlns="http://www.w3.org/2000/svg">
<path fill-rule="evenodd" clip-rule="evenodd" d="M30 5C30 3.89543 30.8954 3 32 3C33.1046 3 34 3.89543 34 5V21C34 22.1046 33.1046 23 32 23C30.8954 23 30 22.1046 30 21V5ZM36 17C36 15.8954 36.8954 15 38 15H42C43.1046 15 44 15.8954 44 17C44 18.1046 43.1046 19 42 19H38C36.8954 19 36 18.1046 36 17ZM28 27C28 25.8954 28.8954 25 30 25H34C35.1046 25 36 25.8954 36 27C36 28.1046 35.1046 29 34 29H30C28.8954 29 28 28.1046 28 27ZM22 31C20.8954 31 20 31.8954 20 33C20 34.1046 20.8954 35 22 35H26C27.1046 35 28 34.1046 28 33C28 31.8954 27.1046 31 26 31H22ZM46 41C44.8954 41 44 41.8954 44 43C44 44.1046 44.8954 45 46 45H50C51.1046 45 52 44.1046 52 43C52 41.8954 51.1046 41 50 41H46ZM38 47C36.8954 47 36 47.8954 36 49C36 50.1046 36.8954 51 38 51H42C43.1046 51 44 50.1046 44 49C44 47.8954 43.1046 47 42 47H38ZM30 57C28.8954 57 28 57.8954 28 59C28 60.1046 28.8954 61 30 61H34C35.1046 61 36 60.1046 36 59C36 57.8954 35.1046 57 34 57H30ZM52 49C52 47.8954 52.8954 47 54 47H58C59.1046 47 60 47.8954 60 49C60 50.1046 59.1046 51 58 51H54C52.8954 51 52 50.1046 52 49ZM28 43C28 41.8954 28.8954 41 30 41H34C35.1046 41 36 41.8954 36 43C36 44.1046 35.1046 45 34 45H30C28.8954 45 28 44.1046 28 43ZM6 31C4.89543 31 4 31.8954 4 33C4 34.1046 4.89543 35 6 35H10C11.1046 35 12 34.1046 12 33C12 31.8954 11.1046 31 10 31H6ZM8 27C8 25.8954 8.89543 25 10 25H18C19.1046 25 20 25.8954 20 27C20 28.1046 19.1046 29 18 29H10C8.89543 29 8 28.1046 8 27ZM46 25C44.8954 25 44 25.8954 44 27C44 28.1046 44.8954 29 46 29H54C55.1046 29 56 28.1046 56 27C56 25.8954 55.1046 25 54 25H46ZM36 33C36 31.8954 36.8954 31 38 31H42C43.1046 31 44 31.8954 44 33C44 34.1046 43.1046 35 42 35H38C36.8954 35 36 34.1046 36 33ZM54 31C52.8954 31 52 31.8954 52 33C52 34.1046 52.8954 35 54 35H58C59.1046 35 60 34.1046 60 33C60 31.8954 59.1046 31 58 31H54ZM22 15C20.8954 15 20 15.8954 20 17C20 18.1046 20.8954 19 22 19H26C27.1046 19 28 18.1046 28 17C28 15.8954 27.1046 15 26 15H22ZM20 49C20 47.8954 20.8954 47 22 47H26C27.1046 47 28 47.8954 28 49C28 50.1046 27.1046 51 26 51H22C20.8954 51 20 50.1046 20 49ZM6 47C4.89543 47 4 47.8954 4 49C4 50.1046 4.89543 51 6 51H10C11.1046 51 12 50.1046 12 49C12 47.8954 11.1046 47 10 47H6ZM12 43C12 41.8954 12.8954 41 14 41H18C19.1046 41 20 41.8954 20 43C20 44.1046 19.1046 45 18 45H14C12.8954 45 12 44.1046 12 43ZM14 57C12.8954 57 12 57.8954 12 59C12 60.1046 12.8954 61 14 61H18C19.1046 61 20 60.1046 20 59C20 57.8954 19.1046 57 18 57H14ZM44 59C44 57.8954 44.8954 57 46 57H50C51.1046 57 52 57.8954 52 59C52 60.1046 51.1046 61 50 61H46C44.8954 61 44 60.1046 44 59ZM40 53C38.8954 53 38 53.8954 38 55V59C38 60.1046 38.8954 61 40 61C41.1046 61 42 60.1046 42 59V55C42 53.8954 41.1046 53 40 53ZM54 55C54 53.8954 54.8954 53 56 53C57.1046 53 58 53.8954 58 55V59C58 60.1046 57.1046 61 56 61C54.8954 61 54 60.1046 54 59V55ZM24 53C22.8954 53 22 53.8954 22 55V59C22 60.1046 22.8954 61 24 61C25.1046 61 26 60.1046 26 59V55C26 53.8954 25.1046 53 24 53ZM6 55C6 53.8954 6.89543 53 8 53C9.10457 53 10 53.8954 10 55V59C10 60.1046 9.10457 61 8 61C6.89543 61 6 60.1046 6 59V55ZM24 37C22.8954 37 22 37.8954 22 39V43C22 44.1046 22.8954 45 24 45C25.1046 45 26 44.1046 26 43V39C26 37.8954 25.1046 37 24 37ZM6 39C6 37.8954 6.89543 37 8 37C9.10457 37 10 37.8954 10 39V43C10 44.1046 9.10457 45 8 45C6.89543 45 6 44.1046 6 43V39ZM40 37C38.8954 37 38 37.8954 38 39V43C38 44.1046 38.8954 45 40 45C41.1046 45 42 44.1046 42 43V39C42 37.8954 41.1046 37 40 37ZM54 39C54 37.8954 54.8954 37 56 37C57.1046 37 58 37.8954 58 39V43C58 44.1046 57.1046 45 56 45C54.8954 45 54 44.1046 54 43V39ZM32 31C30.8954 31 30 31.8954 30 33V37C30 38.1046 30.8954 39 32 39C33.1046 39 34 38.1046 34 37V33C34 31.8954 33.1046 31 32 31ZM16 7C14.8954 7 14 7.89543 14 9V21C14 22.1046 14.8954 23 16 23C17.1046 23 18 22.1046 18 21V9C18 7.89543 17.1046 7 16 7ZM46 9C46 7.89543 46.8954 7 48 7C49.1046 7 50 7.89543 50 9V21C50 22.1046 49.1046 23 48 23C46.8954 23 46 22.1046 46 21V9ZM16 47C14.8954 47 14 47.8954 14 49V53C14 54.1046 14.8954 55 16 55C17.1046 55 18 54.1046 18 53V49C18 47.8954 17.1046 47 16 47ZM14 33C14 31.8954 14.8954 31 16 31C17.1046 31 18 31.8954 18 33V37C18 38.1046 17.1046 39 16 39C14.8954 39 14 38.1046 14 37V33ZM24 21C22.8954 21 22 21.8954 22 23V27C22 28.1046 22.8954 29 24 29C25.1046 29 26 28.1046 26 27V23C26 21.8954 25.1046 21 24 21ZM38 23C38 21.8954 38.8954 21 40 21C41.1046 21 42 21.8954 42 23V27C42 28.1046 41.1046 29 40 29C38.8954 29 38 28.1046 38 27V23ZM32 47C30.8954 47 30 47.8954 30 49V53C30 54.1046 30.8954 55 32 55C33.1046 55 34 54.1046 34 53V49C34 47.8954 33.1046 47 32 47ZM46 49C46 47.8954 46.8954 47 48 47C49.1046 47 50 47.8954 50 49V53C50 54.1046 49.1046 55 48 55C46.8954 55 46 54.1046 46 53V49ZM48 31C46.8954 31 46 31.8954 46 33V37C46 38.1046 46.8954 39 48 39C49.1046 39 50 38.1046 50 37V33C50 31.8954 49.1046 31 48 31Z" fill="currentColor"/>
</svg>
