<svg width="18" height="18" viewBox="0 0 18 18" fill="none" xmlns="http://www.w3.org/2000/svg">
    <rect x="3" y="15" width="12" height="1.5" rx="0.75" fill="#462126"/>
    <path d="M3.75 7.5C3.75 7.36193 3.86193 7.25 4 7.25H9.5C9.63807 7.25 9.75 7.36193 9.75 7.5V13C9.75 13.1381 9.63807 13.25 9.5 13.25H4C3.86193 13.25 3.75 13.1381 3.75 13V7.5Z" stroke="#462126" stroke-width="1.5"/>
    <path d="M13.5 7.25C13.5 6.83579 13.8358 6.5 14.25 6.5C14.6642 6.5 15 6.83579 15 7.25V13.25C15 13.6642 14.6642 14 14.25 14C13.8358 14 13.5 13.6642 13.5 13.25V7.25Z" fill="#462126"/>
    <path d="M3.75566 3.60472C3.92581 3.09429 4.40348 2.75 4.94152 2.75H13.0585C13.5965 2.75 14.0742 3.09429 14.2443 3.60471L14.911 5.60472C15.1808 6.41413 14.5783 7.25 13.7251 7.25H4.27485C3.42165 7.25 2.81919 6.41413 3.089 5.60472L3.75566 3.60472Z" stroke="#462126" stroke-width="1.5"/>
</svg>
