<svg width="24" height="24" viewBox="0 0 24 24" fill="none" xmlns="http://www.w3.org/2000/svg">
<path d="M4 20V6.33333L6.5 3H17.5L20 6.33333V20C20 20.2652 19.8946 20.5196 19.7071 20.7071C19.5196 20.8946 19.2652 21 19 21H5C4.73478 21 4.48043 20.8946 4.29289 20.7071C4.10536 20.5196 4 20.2652 4 20Z" stroke="#462126" stroke-width="2" stroke-linecap="round" stroke-linejoin="round"/>
<rect x="4" y="5" width="16" height="2" fill="#462126"/>
<path d="M16 10C16 11.0609 15.5786 12.0783 14.8284 12.8284C14.0783 13.5786 13.0609 14 12 14C10.9391 14 9.92172 13.5786 9.17157 12.8284C8.42143 12.0783 8 11.0609 8 10" stroke="#462126" stroke-width="2" stroke-linecap="round" stroke-linejoin="round"/>
</svg>
